{
    "name":"checkers",
    "boardDimensions":
    {
        "rows":10,
        "columns":10
    },
    "players":
    {
        "white":
        {
            "rowDirection":1
        },
        "black":
        {
            "rowDirection":-1
        }
    },
    "playingOrder": ["white","black"],
    "pieces":
    {
        "man":
        {
            "type":"jump",
            "moves":
            [
                "+1/+1",
                "-1/+1"
            ],
            "attacks":
            {
                "moves":
                [
                    "+2/+2",
                    "-2/+2"
                ],
                "pieceOffsets":
                [
                    "-1/-1",
                    "+1/-1"
                ]
            }
        },
        "king":
        {
            "type":"jump",
            "moves":
            [
                "+n/+n",
                "-n/+n",
                "-n/-n",
                "+n/-n"
            ],
            "attacks":
            {
                "moves":
                [
                    "+n/+n",
                    "-n/+n",
                    "-n/-n",
                    "+n/-n"
                ],
                "pieceOffsets":
                [
                    "-1/-1",
                    "+1/-1",
                    "+1/+1",
                    "-1/+1"
                ]
            }
        }
    },
    "startingPositions":
    {
        "white":
        {

            "man":["a1","c1","e1","g1","i1","a3","c3","e3","g3","i3","b2","d2","f2","h2","j2","b4","d4","f4","h4","j4"]

        },
        "black":
        {
            "man":["b10","d10","f10","h10","j10","b8","d8","f8","h8","j8","a9","c9","e9","g9","i9","a7","c7","e7","g7","i7"]


        }
    }
}
